308092 5.00423930e+05 6.30389024e+05 8.38458896e+05
308093 5.00655723e+05 6.30868207e+05 8.39218621e+05
308094 5.00312368e+05 6.29342387e+05 8.32480630e+05
308096 9.98800636e+05 1.24846920e+06 1.65329582e+06
308097 9.98920583e+05 1.24755899e+06 1.65805743e+06
308098 9.98973244e+05 1.24782023e+06 1.65662535e+06
361020 1.60000000e+07 1.59870000e+07 0.00000000e+00
361021 5.78667972e+08 5.77553063e+08 0.00000000e+00
361022 4.77269859e+08 4.76948347e+08 0.00000000e+00
361023 5.82209277e+08 5.83437870e+08 0.00000000e+00
361024 4.02892990e+08 4.04454483e+08 0.00000000e+00
361025 2.52804996e+08 2.53031695e+08 0.00000000e+00
361026 1.80202843e+08 1.80736856e+08 0.00000000e+00
361027 4.53391366e+08 4.27588606e+08 0.00000000e+00
361028 1.59990000e+07 1.59870000e+07 0.00000000e+00
361029 1.39955000e+07 1.45115000e+07 0.00000000e+00
361030 1.39850000e+07 1.59880000e+07 0.00000000e+00
361031 1.59480000e+07 1.59930000e+07 0.00000000e+00
361032 1.59956000e+07 1.56400000e+07 0.00000000e+00
363266 3.52475390e+00 4.31166958e+00 5.68664629e+00
363267 3.75360797e+00 6.34176317e+00 6.57404329e+00
363268 3.61180539e+00 6.38749786e+00 6.53708417e+00
363270 5.68959049e+01 6.98283652e+01 9.05412408e+01
363271 5.69136558e+01 6.66127049e+01 9.05387935e+01
363272 5.69026660e+01 6.96793851e+01 8.65059585e+01
364250 7.51881190e+06 1.51850853e+07 1.08083884e+07
364253 5.35644542e+06 1.09984981e+07 9.23349912e+06
364541 2.07591316e+13 -2.50309789e+14 1.09571046e+13
364542 5.46163910e+06 -4.79949981e+13 -1.26305833e+13
364543 5.99743460e+06 7.50720983e+06 1.23075338e+07
364544 6.46807196e+06 8.09460614e+06 1.33999028e+07
364545 2.00236811e+06 2.50895082e+06 4.14881943e+06
364546 1.36752836e+06 1.70993811e+06 2.53444082e+06
364547 1.05755602e+06 1.31105953e+06 1.90736864e+06
410389 4.20707512e+03 5.21832582e+03 6.96644286e+03
410470 8.72058145e+10 1.08982986e+11 1.45405654e+11
410471 2.91241122e+10 3.64012620e+10 6.29107106e+10
410644 4.05636896e+06 5.06559711e+06 6.69945501e+06
410645 2.53796530e+06 3.17182408e+06 4.20758582e+06
410646 3.79094182e+08 4.68991564e+08 6.29079338e+08
410647 3.79068450e+08 4.72449818e+08 6.27923458e+08
410658 9.16561399e+08 1.13294793e+09 1.54136308e+09
410659 5.48747574e+08 4.06982676e+08 7.86706872e+08
412006 1.67394935e+01 2.04476159e+01 2.70248589e+01
412147 1.35273116e+06 1.70800703e+06 2.27882275e+06
500334 6.61856982e+04 8.32480682e+04 1.09677913e+05
504678 4.65255860e+09 6.11536850e+09 7.39468173e+09
504679 4.67792160e+09 6.11876968e+09 7.50147271e+09
504680 1.25944619e+09 1.59868438e+09 1.96253385e+09
700320 1.14897511e+14 1.49184616e+14 1.63224712e+14
700321 4.35131772e+14 5.63351335e+14 6.67804003e+14
700322 1.12489325e+15 1.37282461e+15 1.13359395e+15
700323 8.13877325e+13 1.46666504e+14 1.92289350e+14
700324 4.35784040e+14 5.63978943e+14 6.68060700e+14
700325 1.19715714e+15 1.23437194e+15 8.54722090e+14
700326 4.26046788e+12 5.30045005e+12 7.12726232e+12
700327 1.09126681e+14 2.13672230e+13 2.85932135e+13
700328 1.74023098e+14 2.18157155e+14 7.24337251e+13
700329 2.84700417e+13 1.30482768e+12 7.06373190e+12
700330 1.67107911e+13 1.24323889e+14 2.76971617e+13
700331 1.70990911e+14 2.14470297e+14 2.85242420e+14
700332 1.73742357e+13 2.23027716e+13 2.94768256e+13
700333 6.53656669e+13 8.29557702e+13 1.10619265e+14
700334 1.08477089e+14 1.36327961e+14 1.81154088e+14
700338 1.19514730e+14 1.50403153e+14 2.00392082e+14
700339 1.45799082e+15 1.81275692e+15 2.42742092e+15
700340 1.27154418e+16 1.58604467e+16 1.46952077e+16
700341 1.17890136e+14 3.69105995e+14 1.97252365e+14
700342 2.97377111e+15 7.56631590e+15 6.11210810e+15
700343 1.27204103e+16 1.58451027e+16 2.11998353e+16
700344 1.22879119e+14 1.60059295e+14 4.09910925e+13
700345 1.43620912e+15 1.85889043e+15 4.87262735e+14
700346 2.58477824e+15 3.20004393e+15 8.28711455e+14
700347 5.01492591e+13 6.37229069e+13 8.43580291e+13
700348 5.74905906e+14 4.65951798e+14 9.89180249e+14
700349 2.58438362e+15 3.19906347e+15 4.29251704e+15
700398 1.80923110e+13 2.38458120e+13 3.09670953e+13
700399 1.78180144e+13 2.34454030e+13 3.05288258e+13
700400 1.67347914e+13 2.19787988e+13 5.73442443e+13
700401 7.81415379e+12 1.02085308e+13 1.32125926e+13
700402 2.78867844e+14 3.62949899e+14 1.70788765e+14
700403 2.72017324e+14 3.54055656e+14 3.27013533e+14
700404 2.45690555e+14 3.20103024e+14 2.21363471e+14
364701 2.63645200e+08 1.99630000e+07 3.04785400e+08
364702 4.28152327e+04 7.38415359e+03 2.80598785e+04
364703 9.66328785e+02 1.01709319e+03 1.29931414e+03
364704 2.75656060e+01 3.33776042e+01 4.86945658e+01
364705 8.51192403e-01 8.67587450e-01 1.01179601e+00
364706 2.22406627e-02 2.77969869e-02 3.89311045e-02
364707 3.05932840e-03 3.82368953e-03 5.35662855e-03
364708 8.84312268e-04 1.10877192e-03 1.54999289e-03
364709 1.71866518e-04 2.14897900e-04 2.74863671e-04
364710 2.00281530e-05 2.65034689e-05 3.20958267e-05
364711 1.05570453e-05 1.40227331e-05 1.69650231e-05
364712 6.16186490e-06 8.15004181e-06 9.86921171e-06
